"Category Name","CategoryID","Product Name","ProductID","Product Image Url","allImageUrls(5<)","Product Url","originalPrice($)","salePrice($)","Commission Rate","Out of Stock Date","Discount","Click url"
"Auto Replacement Parts","200000212","BAWA Car Front Grille for Wrangler 2007-2016 ABS Multicolor Red Car Exterior Front Grille Ring Cover                            ","32914040697","https://ae01.alicdn.com/kf/HTB1G9KzB2uSBuNkHFqDq6xfhVXa4/BAWA-Car-Front-Grille-for-Wrangler-2007-2016-ABS-Multicolor-Red-Car-Exterior-Front-Grille-Ring.jpg_220x220.jpg","https://ae01.alicdn.com/kf/HTB1G9KzB2uSBuNkHFqDq6xfhVXa4/BAWA-Car-Front-Grille-for-Wrangler-2007-2016-ABS-Multicolor-Red-Car-Exterior-Front-Grille-Ring.jpg,https://ae01.alicdn.com/kf/HTB118IUc6fguuRjy1zeq6z0KFXaf/BAWA-Car-Front-Grille-for-Wrangler-2007-2016-ABS-Multicolor-Red-Car-Exterior-Front-Grille-Ring.jpg,https://ae01.alicdn.com/kf/HTB1D.aUKk9WBuNjSspeq6yz5VXaB/BAWA-Car-Front-Grille-for-Wrangler-2007-2016-ABS-Multicolor-Red-Car-Exterior-Front-Grille-Ring.jpg,https://ae01.alicdn.com/kf/HTB1XZLErvImBKNjSZFlq6A43FXam/BAWA-Car-Front-Grille-for-Wrangler-2007-2016-ABS-Multicolor-Red-Car-Exterior-Front-Grille-Ring.jpg,https://ae01.alicdn.com/kf/HTB13pzBKb1YBuNjSszhq6AUsFXaL/BAWA-Car-Front-Grille-for-Wrangler-2007-2016-ABS-Multicolor-Red-Car-Exterior-Front-Grille-Ring.jpg,","https://www.aliexpress.com/item/BAWA-Car-Front-Grille-for-Wrangler-2007-2016-ABS-Multicolor-Red-Car-Exterior-Front-Grille-Ring/32914040697.html","36.10","28.88","8.00%","2018-11-12","20%","http://s.click.aliexpress.com/e/c3bHKuqc"
"Auto Replacement Parts","200000212","Carbon Fiber / FRP Black Car Front Bumper Lip Spoiler Guard for BMW 4 Series F32 F33 F36 M Sport M tech 2014 2015","32915806942","https://ae01.alicdn.com/kf/HTB1ApLysbArBKNjSZFLq6A_dVXak/Carbon-Fiber-FRP-Black-Car-Front-Bumper-Lip-Spoiler-Guard-for-BMW-4-Series-F32-F33.jpg_220x220.jpg","https://ae01.alicdn.com/kf/HTB1ApLysbArBKNjSZFLq6A_dVXak/Carbon-Fiber-FRP-Black-Car-Front-Bumper-Lip-Spoiler-Guard-for-BMW-4-Series-F32-F33.jpg,https://ae01.alicdn.com/kf/HTB1anYWKkOWBuNjSsppq6xPgpXaG/Carbon-Fiber-FRP-Black-Car-Front-Bumper-Lip-Spoiler-Guard-for-BMW-4-Series-F32-F33.jpg,https://ae01.alicdn.com/kf/HTB1nCgarWQoBKNjSZJnq6yw9VXaA/Carbon-Fiber-FRP-Black-Car-Front-Bumper-Lip-Spoiler-Guard-for-BMW-4-Series-F32-F33.jpg,https://ae01.alicdn.com/kf/HTB1sk5nKf5TBuNjSspcq6znGFXat/Carbon-Fiber-FRP-Black-Car-Front-Bumper-Lip-Spoiler-Guard-for-BMW-4-Series-F32-F33.jpg,https://ae01.alicdn.com/kf/HTB1HJq_B3KTBuNkSne1q6yJoXXa2/Carbon-Fiber-FRP-Black-Car-Front-Bumper-Lip-Spoiler-Guard-for-BMW-4-Series-F32-F33.jpg,","https://www.aliexpress.com/item/Carbon-Fiber-FRP-Black-Car-Front-Bumper-Lip-Spoiler-Guard-for-BMW-4-Series-F32-F33/32915806942.html","127.88","109.98","8.00%","2018-10-19","14%","http://s.click.aliexpress.com/e/0fHBkRA"
"Car Electronics","200000285","9"" 2 Din 4GB RAM Universal Car Radio Video Output Wifi GPS Navi Camera Bluetooth Steering Wheel Control Andriod8.0 PX5 Octa Core","32914080081","https://ae01.alicdn.com/kf/HTB1B7dsXnHuK1RkSndVq6xVwpXaN/9-2-Din-4GB-RAM-Universal-Car-Radio-Video-Output-Wifi-GPS-Navi-Camera-Bluetooth-Steering.jpg_220x220.jpg","https://ae01.alicdn.com/kf/HTB1B7dsXnHuK1RkSndVq6xVwpXaN/9-2-Din-4GB-RAM-Universal-Car-Radio-Video-Output-Wifi-GPS-Navi-Camera-Bluetooth-Steering.jpg,https://ae01.alicdn.com/kf/HTB1UJGUKf9TBuNjy1zbq6xpepXaA/9-2-Din-4GB-RAM-Universal-Car-Radio-Video-Output-Wifi-GPS-Navi-Camera-Bluetooth-Steering.jpg,https://ae01.alicdn.com/kf/HTB13ictrbwrBKNjSZPcq6xpapXaF/9-2-Din-4GB-RAM-Universal-Car-Radio-Video-Output-Wifi-GPS-Navi-Camera-Bluetooth-Steering.jpg,https://ae01.alicdn.com/kf/HTB1Z4eEKkyWBuNjy0Fpq6yssXXa2/9-2-Din-4GB-RAM-Universal-Car-Radio-Video-Output-Wifi-GPS-Navi-Camera-Bluetooth-Steering.jpg,https://ae01.alicdn.com/kf/HTB1IRYmrBjTBKNjSZFNq6ysFXXal/9-2-Din-4GB-RAM-Universal-Car-Radio-Video-Output-Wifi-GPS-Navi-Camera-Bluetooth-Steering.jpg,","https://www.aliexpress.com/item/9-2-Din-4GB-RAM-Universal-Car-Radio-Video-Output-Wifi-GPS-Navi-Camera-Bluetooth-Steering/32914080081.html","414.55","335.79","10.00%","2018-11-12","19%","http://s.click.aliexpress.com/e/A3vc4RI"
"Car Electronics","200000285","Sale Music Car Radio 10.1"" 1 Din 4GB RAM Universal Car GPS Navi Wifi Bluetooth Carplay Steering Wheel Control Multimedia Player","32913038176","https://ae01.alicdn.com/kf/HTB15UBsXozrK1RjSspmq6AOdFXaP/Sale-Music-Car-Radio-10-1-1-Din-4GB-RAM-Universal-Car-GPS-Navi-Wifi-Bluetooth.jpg_220x220.jpg","https://ae01.alicdn.com/kf/HTB15UBsXozrK1RjSspmq6AOdFXaP/Sale-Music-Car-Radio-10-1-1-Din-4GB-RAM-Universal-Car-GPS-Navi-Wifi-Bluetooth.jpg,https://ae01.alicdn.com/kf/HTB1ZGOjpY3nBKNjSZFMq6yUSFXaX/Sale-Music-Car-Radio-10-1-1-Din-4GB-RAM-Universal-Car-GPS-Navi-Wifi-Bluetooth.jpg,https://ae01.alicdn.com/kf/HTB1jTXsXjDuK1RjSszdq6xGLpXaJ/Sale-Music-Car-Radio-10-1-1-Din-4GB-RAM-Universal-Car-GPS-Navi-Wifi-Bluetooth.jpg,https://ae01.alicdn.com/kf/HTB1rAUUJ4SYBuNjSsphq6zGvVXal/Sale-Music-Car-Radio-10-1-1-Din-4GB-RAM-Universal-Car-GPS-Navi-Wifi-Bluetooth.jpg,https://ae01.alicdn.com/kf/HTB12GOWKf5TBuNjSspmq6yDRVXa4/Sale-Music-Car-Radio-10-1-1-Din-4GB-RAM-Universal-Car-GPS-Navi-Wifi-Bluetooth.jpg,","https://www.aliexpress.com/item/Sale-Music-Car-Radio-10-1-1-Din-4GB-RAM-Universal-Car-GPS-Navi-Wifi-Bluetooth/32913038176.html","445.37","365.20","8.00%","2018-11-12","18%","http://s.click.aliexpress.com/e/by5fYs16"
"Car Lights","200002005","Free shipping for VLAND Car Head lamp for Toyota FJ Cruiser headlight 2007-2014 LED head light H7 Xenon with Grille New design","32814805337","https://ae01.alicdn.com/kf/HTB1LM1Cib_I8KJjy1Xaq6zsxpXam/VLAND-Factory-for-Car-Head-lamp-for-FJ-Cruiser-LED-headlight-2007-2008-2014-LED-head.jpg_220x220.jpg","https://ae01.alicdn.com/kf/HTB1LM1Cib_I8KJjy1Xaq6zsxpXam/VLAND-Factory-for-Car-Head-lamp-for-FJ-Cruiser-LED-headlight-2007-2008-2014-LED-head.jpg,https://ae01.alicdn.com/kf/HTB1PUtFigvD8KJjSsplq6yIEFXa5/VLAND-Factory-for-Car-Head-lamp-for-FJ-Cruiser-LED-headlight-2007-2008-2014-LED-head.jpg,https://ae01.alicdn.com/kf/HTB117dHidbJ8KJjy1zjq6yqapXa3/VLAND-Factory-for-Car-Head-lamp-for-FJ-Cruiser-LED-headlight-2007-2008-2014-LED-head.jpg,https://ae01.alicdn.com/kf/HTB1laFNih6I8KJjSszfq6yZVXXa5/VLAND-Factory-for-Car-Head-lamp-for-FJ-Cruiser-LED-headlight-2007-2008-2014-LED-head.jpg,https://ae01.alicdn.com/kf/HTB15OyAih6I8KJjy0Fgq6xXzVXaW/VLAND-Factory-for-Car-Head-lamp-for-FJ-Cruiser-LED-headlight-2007-2008-2014-LED-head.jpg,","https://www.aliexpress.com/item/Free-shipping-for-VLAND-Car-Head-lamp-for-Toyota-FJ-Cruiser-headlight-2007-2014-LED-head/32814805337.html","588.00","488.04","8.00%","2018-11-12","17%","http://s.click.aliexpress.com/e/bId6iSlw"
"Car Lights","200002005","Free shipping for VLAND Car Taillamp for Toyota FJ Cruiser LED Taillight 2007-2015 Tail light with DRL+Reverse+Signal New design","32818103213","https://ae01.alicdn.com/kf/HTB1L_2_g63z9KJjy0Fmq6xiwXXaQ/VLAND-Car-Tail-lamp-for-FJ-Cruiser-LED-Taillight-2007-2008-2012-2014-FJ-Cruiser-Tail.jpg_220x220.jpg","https://ae01.alicdn.com/kf/HTB1L_2_g63z9KJjy0Fmq6xiwXXaQ/VLAND-Car-Tail-lamp-for-FJ-Cruiser-LED-Taillight-2007-2008-2012-2014-FJ-Cruiser-Tail.jpg,https://ae01.alicdn.com/kf/HTB1yR5uihPI8KJjSspfq6ACFXXaF/VLAND-Car-Tail-lamp-for-FJ-Cruiser-LED-Taillight-2007-2008-2012-2014-FJ-Cruiser-Tail.jpg,https://ae01.alicdn.com/kf/HTB1FV0Tc8fM8KJjSZFhq6ARyFXaU/VLAND-Car-Tail-lamp-for-FJ-Cruiser-LED-Taillight-2007-2008-2012-2014-FJ-Cruiser-Tail.jpg,https://ae01.alicdn.com/kf/HTB1XXlTcVHM8KJjSZFwq6AibXXaY/VLAND-Car-Tail-lamp-for-FJ-Cruiser-LED-Taillight-2007-2008-2012-2014-FJ-Cruiser-Tail.jpg,https://ae01.alicdn.com/kf/HTB11WezigDD8KJjy0Fdq6AjvXXa7/VLAND-Car-Tail-lamp-for-FJ-Cruiser-LED-Taillight-2007-2008-2012-2014-FJ-Cruiser-Tail.jpg,","https://www.aliexpress.com/item/Free-shipping-for-VLAND-Car-Taillamp-for-Toyota-FJ-Cruiser-LED-Taillight-2007-2015-Tail-light/32818103213.html","298.00","241.38","8.00%","2018-11-12","19%","http://s.click.aliexpress.com/e/bPq8v2Lm"
"Car Repair Tool","200259142","2017 Alldata mitchell on demand Software All data 10.53+mitchell on demand 2015+ElsaWin+Vivid workshop+atsg 6in1tb hdd","32826012554","https://ae01.alicdn.com/kf/HTB19lkBSFXXXXXvapXXq6xXFXXX6/2018ALLDATA-Software-Auto-repair-All-data-10-53-mitchell-ondemand-2015-Car-repair-software-Vivid-workshop.jpg_220x220.jpg","https://ae01.alicdn.com/kf/HTB19lkBSFXXXXXvapXXq6xXFXXX6/2018ALLDATA-Software-Auto-repair-All-data-10-53-mitchell-ondemand-2015-Car-repair-software-Vivid-workshop.jpg,https://ae01.alicdn.com/kf/HTB1657ESFXXXXcNaXXXq6xXFXXXj/2018ALLDATA-Software-Auto-repair-All-data-10-53-mitchell-ondemand-2015-Car-repair-software-Vivid-workshop.jpg,https://ae01.alicdn.com/kf/HTB1BeEZSFXXXXXzXVXXq6xXFXXXF/2018ALLDATA-Software-Auto-repair-All-data-10-53-mitchell-ondemand-2015-Car-repair-software-Vivid-workshop.jpg,https://ae01.alicdn.com/kf/HTB18ScdawsSMeJjSspcq6xjFXXaq/2018ALLDATA-Software-Auto-repair-All-data-10-53-mitchell-ondemand-2015-Car-repair-software-Vivid-workshop.jpg,https://ae01.alicdn.com/kf/HTB12_UcaDZRMeJjSspoq6ACOFXaL/2018ALLDATA-Software-Auto-repair-All-data-10-53-mitchell-ondemand-2015-Car-repair-software-Vivid-workshop.jpg,","https://www.aliexpress.com/item/2017-Alldata-mitchell-on-demand-Software-All-data-10-53-mitchell-on-demand-2015-ElsaWin-Vivid/32826012554.html","90.00","85.50","10.00%","2018-10-26","5%","http://s.click.aliexpress.com/e/bV05bmEy"
"Car Repair Tool","200259142","Free Shipping For ELM327 V1.5a USB OBD 2 Cable Interface Au/to Diagnostic Scanner Tool For bmw/audi With High Quality","2015737920","https://ae01.alicdn.com/kf/HTB1MWAladHO8KJjSZFtq6AhfXXan/KWOKKER-Vgate-Scan-USB-ELM327-OBD2-OBD-2-Scan-USB-Interface-Cable-Car-ECU-Diagnostic-Tool.jpg_220x220.jpg","https://ae01.alicdn.com/kf/HTB1MWAladHO8KJjSZFtq6AhfXXan/KWOKKER-Vgate-Scan-USB-ELM327-OBD2-OBD-2-Scan-USB-Interface-Cable-Car-ECU-Diagnostic-Tool.jpg,https://ae01.alicdn.com/kf/HTB1p0XzLpXXXXcBXXXXq6xXFXXXV/KWOKKER-Vgate-Scan-USB-ELM327-OBD2-OBD-2-Scan-USB-Interface-Cable-Car-ECU-Diagnostic-Tool.jpg,https://ae01.alicdn.com/kf/HTB1Lu4ALpXXXXb4XXXXq6xXFXXXy/KWOKKER-Vgate-Scan-USB-ELM327-OBD2-OBD-2-Scan-USB-Interface-Cable-Car-ECU-Diagnostic-Tool.jpg,https://ae01.alicdn.com/kf/HTB1kopBLpXXXXbaXXXXq6xXFXXXp/KWOKKER-Vgate-Scan-USB-ELM327-OBD2-OBD-2-Scan-USB-Interface-Cable-Car-ECU-Diagnostic-Tool.jpg,https://ae01.alicdn.com/kf/HTB13yXhLpXXXXXUXVXXq6xXFXXXV/KWOKKER-Vgate-Scan-USB-ELM327-OBD2-OBD-2-Scan-USB-Interface-Cable-Car-ECU-Diagnostic-Tool.jpg,","https://www.aliexpress.com/item/Free-Shipping-For-ELM327-V1-5a-USB-OBD-2-Cable-Interface-Au-to-Diagnostic-Scanner-Tool/2015737920.html","10.76","9.47","8.00%","2018-11-12","12%","http://s.click.aliexpress.com/e/cOdN5fZW"
"Car Wash ","200260142","PDR Inflatable Locksmiths Tools Pump Wedge Air Wedge Auto Entry Tools  Airbag Lock Pick Set Open Car Door Lock Size 6.3 inch","32834567733","https://ae01.alicdn.com/kf/HTB1mFxYcaagSKJjy0Faq6z0dpXap/PDR-Inflatable-Locksmiths-Tools-Pump-Wedge-Air-Wedge-Auto-Entry-Tools-Airbag-Lock-Pick-Set-Open.jpg_220x220.jpg","https://ae01.alicdn.com/kf/HTB1mFxYcaagSKJjy0Faq6z0dpXap/PDR-Inflatable-Locksmiths-Tools-Pump-Wedge-Air-Wedge-Auto-Entry-Tools-Airbag-Lock-Pick-Set-Open.jpg,https://ae01.alicdn.com/kf/HTB1ZmPCbLMTUeJjSZFKq6ygopXae/PDR-Inflatable-Locksmiths-Tools-Pump-Wedge-Air-Wedge-Auto-Entry-Tools-Airbag-Lock-Pick-Set-Open.jpg,https://ae01.alicdn.com/kf/HTB141DHggoQMeJjy0Foq6AShVXaE/PDR-Inflatable-Locksmiths-Tools-Pump-Wedge-Air-Wedge-Auto-Entry-Tools-Airbag-Lock-Pick-Set-Open.jpg,https://ae01.alicdn.com/kf/HTB1WX2tgbwTMeJjSszfq6xbtFXa3/PDR-Inflatable-Locksmiths-Tools-Pump-Wedge-Air-Wedge-Auto-Entry-Tools-Airbag-Lock-Pick-Set-Open.jpg,https://ae01.alicdn.com/kf/HTB1MdYFggoQMeJjy1Xaq6ASsFXar/PDR-Inflatable-Locksmiths-Tools-Pump-Wedge-Air-Wedge-Auto-Entry-Tools-Airbag-Lock-Pick-Set-Open.jpg,","https://www.aliexpress.com/item/PDR-Inflatable-Locksmiths-Tools-Pump-Wedge-Air-Wedge-Auto-Entry-Tools-Airbag-Lock-Pick-Set-Open/32834567733.html","19.99","14.19","10.00%","2018-11-12","29%","http://s.click.aliexpress.com/e/mCzNcMs"
"Car Wash ","200260142","1pc SEEYULE Auto Car Natural Drying Chamois Sheepskin Deerskin Towel Cleaning Washer Genuine Leather Cloth Dust Remover","32804643894","https://ae01.alicdn.com/kf/HTB1CKRCRXXXXXaPXVXXq6xXFXXXJ/1pc-SEEYULE-Auto-Car-Natural-Drying-Chamois-Sheepskin-Deerskin-Towel-Cleaning-Washer-Genuine-Leather-Cloth-Dust.jpg_220x220.jpg","https://ae01.alicdn.com/kf/HTB1CKRCRXXXXXaPXVXXq6xXFXXXJ/1pc-SEEYULE-Auto-Car-Natural-Drying-Chamois-Sheepskin-Deerskin-Towel-Cleaning-Washer-Genuine-Leather-Cloth-Dust.jpg,https://ae01.alicdn.com/kf/HTB1GOXOQpXXXXa_aXXXq6xXFXXXz/1pc-SEEYULE-Auto-Car-Natural-Drying-Chamois-Sheepskin-Deerskin-Towel-Cleaning-Washer-Genuine-Leather-Cloth-Dust.jpg,https://ae01.alicdn.com/kf/HTB1ST0_QpXXXXcLXpXXq6xXFXXXl/1pc-SEEYULE-Auto-Car-Natural-Drying-Chamois-Sheepskin-Deerskin-Towel-Cleaning-Washer-Genuine-Leather-Cloth-Dust.jpg,https://ae01.alicdn.com/kf/HTB1B3VFQpXXXXbFapXXq6xXFXXXN/1pc-SEEYULE-Auto-Car-Natural-Drying-Chamois-Sheepskin-Deerskin-Towel-Cleaning-Washer-Genuine-Leather-Cloth-Dust.jpg,https://ae01.alicdn.com/kf/HTB1wQX9QpXXXXXPXFXXq6xXFXXXG/1pc-SEEYULE-Auto-Car-Natural-Drying-Chamois-Sheepskin-Deerskin-Towel-Cleaning-Washer-Genuine-Leather-Cloth-Dust.jpg,","https://www.aliexpress.com/item/1pc-SEEYULE-Auto-Car-Natural-Drying-Chamois-Sheepskin-Deerskin-Towel-Cleaning-Washer-Genuine-Leather-Cloth-Dust/32804643894.html","6.08","5.11","8.00%","2018-10-17","16%","http://s.click.aliexpress.com/e/ctkZt6Cu"
"Exterior Accessories","200003427","VTS Car Badge Emblem 3D Logo Sticker For Citroen C2 C3 C4 Quatre Saxo Xsara Jimny  1.6 16v VTR  Red Silver Color Free Shipping","32885178583","https://ae01.alicdn.com/kf/HTB1MSCbwHGYBuNjy0Foq6AiBFXac/VTS-Car-Badge-Emblem-3D-Logo-Sticker-For-Citroen-C2-C3-C4-Quatre-Saxo-Xsara-Jimny.jpg_220x220.jpg","https://ae01.alicdn.com/kf/HTB1MSCbwHGYBuNjy0Foq6AiBFXac/VTS-Car-Badge-Emblem-3D-Logo-Sticker-For-Citroen-C2-C3-C4-Quatre-Saxo-Xsara-Jimny.jpg,https://ae01.alicdn.com/kf/HTB1MDdBwMmTBuNjy1Xbq6yMrVXaJ/VTS-Car-Badge-Emblem-3D-Logo-Sticker-For-Citroen-C2-C3-C4-Quatre-Saxo-Xsara-Jimny.jpg,https://ae01.alicdn.com/kf/HTB1ZrWIwQOWBuNjSsppq6xPgpXaF/VTS-Car-Badge-Emblem-3D-Logo-Sticker-For-Citroen-C2-C3-C4-Quatre-Saxo-Xsara-Jimny.jpg,https://ae01.alicdn.com/kf/HTB1uMGpwL9TBuNjy1zbq6xpepXa6/VTS-Car-Badge-Emblem-3D-Logo-Sticker-For-Citroen-C2-C3-C4-Quatre-Saxo-Xsara-Jimny.jpg,https://ae01.alicdn.com/kf/HTB1XFCAwKuSBuNjSsziq6zq8pXaj/VTS-Car-Badge-Emblem-3D-Logo-Sticker-For-Citroen-C2-C3-C4-Quatre-Saxo-Xsara-Jimny.jpg,","https://www.aliexpress.com/item/VTS-Car-Badge-Emblem-3D-Logo-Sticker-For-Citroen-C2-C3-C4-Quatre-Saxo-Xsara-Jimny/32885178583.html","4.99","4.49","8.00%","2018-10-22","10%","http://s.click.aliexpress.com/e/yfXi34G"
"Exterior Accessories","200003427","1PC Magnetic Car Side Window Sunshade Curtains Auto Windows Sun Visor Animal Pattern Blinds Cover Adjustable Sun Shade","32893459658","https://ae01.alicdn.com/kf/HTB1nwdSXnHuK1RkSndVq6xVwpXaU/1PC-Magnetic-Car-Side-Window-Sunshade-Curtains-Auto-Windows-Sun-Visor-Animal-Pattern-Blinds-Cover-Adjustable.jpg_220x220.jpg","https://ae01.alicdn.com/kf/HTB1nwdSXnHuK1RkSndVq6xVwpXaU/1PC-Magnetic-Car-Side-Window-Sunshade-Curtains-Auto-Windows-Sun-Visor-Animal-Pattern-Blinds-Cover-Adjustable.jpg,https://ae01.alicdn.com/kf/HTB1ehRSXiLrK1Rjy1zdq6ynnpXat/1PC-Magnetic-Car-Side-Window-Sunshade-Curtains-Auto-Windows-Sun-Visor-Animal-Pattern-Blinds-Cover-Adjustable.jpg,https://ae01.alicdn.com/kf/HTB1QhdSXcfrK1Rjy0Fmq6xhEXXae/1PC-Magnetic-Car-Side-Window-Sunshade-Curtains-Auto-Windows-Sun-Visor-Animal-Pattern-Blinds-Cover-Adjustable.jpg,https://ae01.alicdn.com/kf/HTB1zK4SXc_vK1RkSmRyq6xwupXaV/1PC-Magnetic-Car-Side-Window-Sunshade-Curtains-Auto-Windows-Sun-Visor-Animal-Pattern-Blinds-Cover-Adjustable.jpg,https://ae01.alicdn.com/kf/HTB1glFSXh_rK1RkHFqDq6yJAFXaY/1PC-Magnetic-Car-Side-Window-Sunshade-Curtains-Auto-Windows-Sun-Visor-Animal-Pattern-Blinds-Cover-Adjustable.jpg,","https://www.aliexpress.com/item/1PC-Magnetic-Car-Side-Window-Sunshade-Curtains-Auto-Windows-Sun-Visor-Animal-Pattern-Blinds-Cover-Adjustable/32893459658.html","3.33","2.36","8.50%","2018-10-25","29%","http://s.click.aliexpress.com/e/ceCgF2XI"
"Interior Accessories","200003411","CAFELE 2 Types Magnetic Car Phone Holder Universal Air Vent Car Holder for iPhone X GPS 360 Degree Rotation Mobile Phone Holder ","32904456368","https://ae01.alicdn.com/kf/HTB1i3FcdjfguuRjSspkq6xchpXad/CAFELE-2-Types-Magnetic-Car-Phone-Holder-Universal-Air-Vent-Car-Holder-for-iPhone-X-GPS.jpg_220x220.jpg","https://ae01.alicdn.com/kf/HTB1i3FcdjfguuRjSspkq6xchpXad/CAFELE-2-Types-Magnetic-Car-Phone-Holder-Universal-Air-Vent-Car-Holder-for-iPhone-X-GPS.jpg,https://ae01.alicdn.com/kf/HTB1lGw_HVmWBuNjSspdq6zugXXav/CAFELE-2-Types-Magnetic-Car-Phone-Holder-Universal-Air-Vent-Car-Holder-for-iPhone-X-GPS.jpg,https://ae01.alicdn.com/kf/HTB1Kuh5z8mWBuNkSndVq6AsApXa9/CAFELE-2-Types-Magnetic-Car-Phone-Holder-Universal-Air-Vent-Car-Holder-for-iPhone-X-GPS.jpg,https://ae01.alicdn.com/kf/HTB1oiRCIgaTBuNjSszfq6xgfpXad/CAFELE-2-Types-Magnetic-Car-Phone-Holder-Universal-Air-Vent-Car-Holder-for-iPhone-X-GPS.jpg,https://ae01.alicdn.com/kf/HTB1kaRPIkKWBuNjy1zjq6AOypXaL/CAFELE-2-Types-Magnetic-Car-Phone-Holder-Universal-Air-Vent-Car-Holder-for-iPhone-X-GPS.jpg,","https://www.aliexpress.com/item/CAFELE-2-Types-Magnetic-Car-Phone-Holder-Universal-Air-Vent-Car-Holder-for-iPhone-X-GPS/32904456368.html","9.00","4.95","10.00%","2018-10-27","45%","http://s.click.aliexpress.com/e/bgspOjag"
"Interior Accessories","200003411","Organizer PU Leather Car Storage Bag Auto Seat Organizer Box Caddy Catcher Space Store Leak-Proof Stowing Tidying Pocket Holder","32920638708","https://ae01.alicdn.com/kf/HTB1PHgKB2iSBuNkSnhJq6zDcpXaX/Organizer-PU-Leather-Car-Storage-Bag-Auto-Seat-Organizer-Box-Caddy-Catcher-Space-Store-Leak-Proof.jpg_220x220.jpg","https://ae01.alicdn.com/kf/HTB1PHgKB2iSBuNkSnhJq6zDcpXaX/Organizer-PU-Leather-Car-Storage-Bag-Auto-Seat-Organizer-Box-Caddy-Catcher-Space-Store-Leak-Proof.jpg,https://ae01.alicdn.com/kf/HTB1AgTwdi6guuRjy0Fmq6y0DXXaa/Organizer-PU-Leather-Car-Storage-Bag-Auto-Seat-Organizer-Box-Caddy-Catcher-Space-Store-Leak-Proof.jpg,https://ae01.alicdn.com/kf/HTB1VBg0w77mBKNjSZFyq6zydFXa3/Organizer-PU-Leather-Car-Storage-Bag-Auto-Seat-Organizer-Box-Caddy-Catcher-Space-Store-Leak-Proof.jpg,https://ae01.alicdn.com/kf/HTB10p.qwZj_B1NjSZFHq6yDWpXaY/Organizer-PU-Leather-Car-Storage-Bag-Auto-Seat-Organizer-Box-Caddy-Catcher-Space-Store-Leak-Proof.jpg,https://ae01.alicdn.com/kf/HTB1ylCDKuuSBuNjSsziq6zq8pXa9/Organizer-PU-Leather-Car-Storage-Bag-Auto-Seat-Organizer-Box-Caddy-Catcher-Space-Store-Leak-Proof.jpg,","https://www.aliexpress.com/item/Organizer-PU-Leather-Car-Storage-Bag-Auto-Seat-Organizer-Box-Caddy-Catcher-Space-Store-Leak-Proof/32920638708.html","12.49","9.87","15.00%","2018-11-12","21%","http://s.click.aliexpress.com/e/cM3JrS7m"
"Motorcycle Accessories ","200000242","Free shipping Universal CNC Motorcycle general refit four piston brake pump HF6 caliper 9mm hole motorcycle fittings ","32878888872","https://ae01.alicdn.com/kf/HTB1M4a_uyAnBKNjSZFvq6yTKXXaL/Free-shipping-Universal-CNC-Motorcycle-general-refit-four-piston-brake-pump-HF6-caliper-9mm-hole-motorcycle.jpg_220x220.jpg","https://ae01.alicdn.com/kf/HTB1M4a_uyAnBKNjSZFvq6yTKXXaL/Free-shipping-Universal-CNC-Motorcycle-general-refit-four-piston-brake-pump-HF6-caliper-9mm-hole-motorcycle.jpg,https://ae01.alicdn.com/kf/HTB1uadiKuySBuNjy1zdq6xPxFXap/Free-shipping-Universal-CNC-Motorcycle-general-refit-four-piston-brake-pump-HF6-caliper-9mm-hole-motorcycle.jpg,https://ae01.alicdn.com/kf/HTB1CM.lKf9TBuNjy0Fcq6zeiFXas/Free-shipping-Universal-CNC-Motorcycle-general-refit-four-piston-brake-pump-HF6-caliper-9mm-hole-motorcycle.jpg,https://ae01.alicdn.com/kf/HTB1Ncl4di6guuRjy0Fmq6y0DXXaZ/Free-shipping-Universal-CNC-Motorcycle-general-refit-four-piston-brake-pump-HF6-caliper-9mm-hole-motorcycle.jpg,https://ae01.alicdn.com/kf/HTB1nUY7KeuSBuNjy1Xcq6AYjFXaw/Free-shipping-Universal-CNC-Motorcycle-general-refit-four-piston-brake-pump-HF6-caliper-9mm-hole-motorcycle.jpg,","https://www.aliexpress.com/item/Free-shipping-Universal-CNC-Motorcycle-general-refit-four-piston-brake-pump-HF6-caliper-9mm-hole-motorcycle/32878888872.html","74.99","53.24","8.00%","2018-10-25","29%","http://s.click.aliexpress.com/e/bOpw0nX6"
"Motorcycle Accessories ","200000242","Universal 51mm Motorcycle Exhaust Pipe Muffler Moto Carbon fibre With db killer For NINJIA650 Z900 Z800 Motorbike Silencer Pipe","32917400825","https://ae01.alicdn.com/kf/HTB1jMjrBZuYBuNkSmRyq6AA3pXaJ/Universal-51mm-Motorcycle-Exhaust-Pipe-Muffler-Moto-Carbon-fibre-With-db-killer-For-NINJIA650-Z900-Z800.jpg_220x220.jpg","https://ae01.alicdn.com/kf/HTB1jMjrBZuYBuNkSmRyq6AA3pXaJ/Universal-51mm-Motorcycle-Exhaust-Pipe-Muffler-Moto-Carbon-fibre-With-db-killer-For-NINJIA650-Z900-Z800.jpg,https://ae01.alicdn.com/kf/HTB1yyvxKkKWBuNjy1zjq6AOypXar/Universal-51mm-Motorcycle-Exhaust-Pipe-Muffler-Moto-Carbon-fibre-With-db-killer-For-NINJIA650-Z900-Z800.jpg,https://ae01.alicdn.com/kf/HTB1J7gduAomBKNjSZFqq6xtqVXaL/Universal-51mm-Motorcycle-Exhaust-Pipe-Muffler-Moto-Carbon-fibre-With-db-killer-For-NINJIA650-Z900-Z800.jpg,https://ae01.alicdn.com/kf/HTB1oyDxKkKWBuNjy1zjq6AOypXaB/Universal-51mm-Motorcycle-Exhaust-Pipe-Muffler-Moto-Carbon-fibre-With-db-killer-For-NINJIA650-Z900-Z800.jpg,https://ae01.alicdn.com/kf/HTB1cdxEKruWBuNjSszgq6z8jVXaj/Universal-51mm-Motorcycle-Exhaust-Pipe-Muffler-Moto-Carbon-fibre-With-db-killer-For-NINJIA650-Z900-Z800.jpg,","https://www.aliexpress.com/item/Universal-51mm-Motorcycle-Exhaust-Pipe-Muffler-Moto-Carbon-fibre-With-db-killer-For-NINJIA650-Z900-Z800/32917400825.html","128.00",,"10.00%","2018-10-27",,"http://s.click.aliexpress.com/e/cEfEkIys"
"Other Vehicle Parts ","200004043","Electric Power Steering(eps) for UTV Can-Am Commander 2011+ (FULL SET)","32813856337","https://ae01.alicdn.com/kf/HTB1N3snb2NZWeJjSZFpq6xjBFXaj/Electric-Power-Steering-eps-for-UTV-.jpg_220x220.jpg","https://ae01.alicdn.com/kf/HTB1N3snb2NZWeJjSZFpq6xjBFXaj/Electric-Power-Steering-eps-for-UTV-.jpg,https://ae01.alicdn.com/kf/HTB10QE.dp9gSKJjSspbq6zeNXXaf/Electric-Power-Steering-eps-for-UTV-.jpg,https://ae01.alicdn.com/kf/HTB1Z85KlN3IL1JjSZPfq6ArUVXar/Electric-Power-Steering-eps-for-UTV-.jpg,https://ae01.alicdn.com/kf/HTB1asWbduKAUKJjSZFzq6xdQFXav/Electric-Power-Steering-eps-for-UTV-.jpg,","https://www.aliexpress.com/item/Electric-Power-Steering-eps-for-UTV-Can-Am-Commander-2011-FULL-SET/32813856337.html","388.00",,"10.00%","2018-11-08",,"http://s.click.aliexpress.com/e/bqgA0Vky"
"Other Vehicle Parts ","200004043","1 Pair Stainless Steel 12V LED Bow Navigation Light Red Green Sailing Signal Light for Marine Boat Yacht","32736560330","https://ae01.alicdn.com/kf/HTB1Px7akHSYBuNjSspfq6AZCpXai/CITALL-1-Pair-Stainless-Steel-12V-LED-Bow-Navigation-Light-Red-Green-Sailing-Signal-Light-for.jpg_220x220.jpg","https://ae01.alicdn.com/kf/HTB1Px7akHSYBuNjSspfq6AZCpXai/CITALL-1-Pair-Stainless-Steel-12V-LED-Bow-Navigation-Light-Red-Green-Sailing-Signal-Light-for.jpg,https://ae01.alicdn.com/kf/HTB1zes1cUOWBKNjSZKzq6xfWFXaG/CITALL-1-Pair-Stainless-Steel-12V-LED-Bow-Navigation-Light-Red-Green-Sailing-Signal-Light-for.jpg,https://ae01.alicdn.com/kf/HTB1Twr0kKuSBuNjSsziq6zq8pXak/CITALL-1-Pair-Stainless-Steel-12V-LED-Bow-Navigation-Light-Red-Green-Sailing-Signal-Light-for.jpg,https://ae01.alicdn.com/kf/HTB1I5H6kH1YBuNjSszhq6AUsFXaH/CITALL-1-Pair-Stainless-Steel-12V-LED-Bow-Navigation-Light-Red-Green-Sailing-Signal-Light-for.jpg,","https://www.aliexpress.com/item/1-Pair-Stainless-Steel-12V-LED-Bow-Navigation-Light-Red-Green-Sailing-Signal-Light-for-Marine/32736560330.html","13.99",,"8.00%","2018-11-12",,"http://s.click.aliexpress.com/e/bHRTAlDq"